[
  {
    "id": "theory-rest-fundamentals",
    "title": "Fundamentos de REST — Verbos, Recursos, Códigos de Estado",
    "sections": [
      {
        "heading": "¿Qué es REST?",
        "content": "REST (Representational State Transfer) es un estilo arquitectónico para APIs construido sobre HTTP.\n\nRestricciones principales:\n• <strong>Stateless (Sin estado)</strong> — cada petición contiene toda la información necesaria (no hay sesión en el servidor)\n• <strong>Orientado a recursos</strong> — las URLs identifican recursos (sustantivos), no acciones (verbos)\n• <strong>Interfaz uniforme</strong> — los verbos HTTP definen la operación\n• <strong>Cacheable</strong> — las respuestas pueden ser almacenadas en caché por clientes/proxies\n\n<pre><code>// Los recursos son SUSTANTIVOS (¡no verbos!)\nGET  /deliveries          ← listar entregas\nGET  /deliveries/4567     ← obtener una entrega\nPOST /deliveries          ← crear una entrega\nPUT  /deliveries/4567     ← reemplazar una entrega\nPATCH /deliveries/4567    ← actualización parcial\nDELETE /deliveries/4567   ← eliminar una entrega\n\n// ❌ Antipatrón: verbos en las URLs\nPOST /createDelivery\nGET  /getDeliveryById?id=4567\nPOST /deleteDelivery</code></pre>"
      },
      {
        "heading": "Verbos HTTP y su semántica",
        "content": "<pre><code>GET     — Leer (sin efectos secundarios, idempotente, cacheable)\nPOST    — Crear (no es idempotente; llamar dos veces crea 2 recursos)\nPUT     — Reemplazar totalmente (idempotente; llamar dos veces = mismo resultado)\nPATCH   — Actualización parcial (puede o no ser idempotente)\nDELETE  — Eliminar (idempotente; eliminar dos veces = mismo estado)</code></pre>\n\n<strong>Idempotente</strong> = llamar N veces produce el mismo resultado que llamar una sola vez.\n• GET, PUT, DELETE son idempotentes\n• POST NO es idempotente (crea un nuevo recurso cada vez)\n• PATCH depende de la operación\n\n<strong>Seguro (Safe)</strong> = no modifica el estado del servidor.\n• GET, HEAD, OPTIONS son seguros\n• POST, PUT, PATCH, DELETE NO son seguros\n\n<strong>Pregunta de entrevista:</strong> \"¿Cuál es la diferencia entre PUT y PATCH?\"\nPUT reemplaza el recurso COMPLETO. PATCH actualiza solo los campos que se envían.\n<pre><code>// PUT — debe enviar TODOS los campos (si faltan = se ponen a null/por defecto)\nPUT /deliveries/4567\n{ \"driverId\": \"d-42\", \"route\": \"R-7\", \"status\": \"DISPATCHED\", \"stops\": [...] }\n\n// PATCH — envía SOLO lo que cambia\nPATCH /deliveries/4567\n{ \"status\": \"DISPATCHED\" }</code></pre>"
      },
      {
        "heading": "Códigos de Estado HTTP",
        "content": "<pre><code>2xx — ÉXITO\n  200 OK              — éxito general (GET, PUT, PATCH)\n  201 Created         — recurso creado (POST) + cabecera Location\n  204 No Content      — éxito sin cuerpo (DELETE)\n\n3xx — REDIRECCIÓN\n  301 Moved Permanently\n  304 Not Modified    — caché aún válida (ETag)\n\n4xx — ERROR DEL CLIENTE (tu culpa)\n  400 Bad Request     — fallo de validación, payload mal formado\n  401 Unauthorized    — no autenticado (token ausente o inválido)\n  403 Forbidden       — autenticado pero no autorizado\n  404 Not Found       — el recurso no existe\n  409 Conflict        — conflicto de estado (duplicado, error de versión)\n  422 Unprocessable   — semánticamente inválido (JSON válido pero datos incorrectos)\n  429 Too Many Reqs   — límite de tasa excedido\n\n5xx — ERROR DEL SERVIDOR (nuestra culpa)\n  500 Internal Error  — fallo inesperado (bug, timeout)\n  502 Bad Gateway     — el servicio upstream falló\n  503 Unavailable     — sobrecarga o mantenimiento\n  504 Gateway Timeout — tiempo de espera agotado en upstream</code></pre>\n\n<strong>Tip de entrevista:</strong> \"¿400 vs 422?\" — 400 = ni siquiera se puede parsear la petición. 422 = se parseó, pero el contenido viola las reglas de negocio."
      }
    ],
    "topic": "rest",
    "subtopic": "rest-verbs"
  },
  {
    "id": "theory-rest-design",
    "title": "Diseño de API — Paginación, Formato de Errores, Versionado",
    "sections": [
      {
        "heading": "Paginación",
        "content": "Nunca devuelvas listas sin límites. Siempre usa paginación:\n\n<pre><code>GET /deliveries?offset=0&limit=20&sort=createdAt,desc\n\n// La respuesta incluye metadatos de paginación\n{\n  \"content\": [...],\n  \"page\": { \"offset\": 0, \"limit\": 20, \"total\": 1543 },\n  \"links\": {\n    \"next\": \"/deliveries?offset=20&limit=20\",\n    \"prev\": null\n  }\n}</code></pre>\n\n<strong>Basada en cursor (para alto volumen):</strong>\n<pre><code>GET /deliveries?after=2026-07-19T10:00:00Z&afterId=4567&limit=50\n// Más eficiente que el offset para datasets grandes (sin COUNT, sin saltar registros)</code></pre>\n\n<strong>Reglas:</strong>\n• Establece siempre un límite máximo en el servidor (ej. máx 100)\n• Usa siempre un ordenamiento determinista (incluye el ID como desempate)\n• Nunca pagines sin un ORDER BY"
      },
      {
        "heading": "Formato de respuesta de errores",
        "content": "Respuestas de error consistentes en todos los endpoints:\n\n<pre><code>// Error de validación (400)\n{\n  \"code\": \"VALIDATION_FAILED\",\n  \"message\": \"La validación de la petición falló\",\n  \"details\": [\n    { \"field\": \"driverId\", \"error\": \"no puede estar en blanco\" },\n    { \"field\": \"scheduledAt\", \"error\": \"debe ser una fecha futura\" }\n  ]\n}\n\n// Error de negocio (409)\n{\n  \"code\": \"DELIVERY_ALREADY_DISPATCHED\",\n  \"message\": \"La entrega 4567 ya ha sido despachada y no puede modificarse\"\n}\n\n// No encontrado (404)\n{\n  \"code\": \"DELIVERY_NOT_FOUND\",\n  \"message\": \"La entrega con ID 4567 no existe\"\n}</code></pre>\n\n<strong>Reglas:</strong>\n• Código legible por máquina (para sentencias switch en el cliente)\n• Mensaje legible por humanos (para logs/depuración)\n• NUNCA expongas stack traces o detalles internos\n• NUNCA devuelvas un 200 con un error en el cuerpo"
      },
      {
        "heading": "Estrategias de versionado",
        "content": "<strong>Versionado en la ruta URL</strong> (el más común y claro):\n<pre><code>GET /api/v1/deliveries\nGET /api/v2/deliveries</code></pre>\n\n<strong>Versionado por cabecera (Header):</strong>\n<pre><code>GET /api/deliveries\nAccept: application/vnd.rewe.v2+json</code></pre>\n\n<strong>Cuándo crear una nueva versión:</strong>\n• Eliminar un campo de la respuesta\n• Cambiar el tipo o significado de un campo existente\n• Hacer obligatorio un parámetro que era opcional\n• Cambiar la estructura de la respuesta\n\n<strong>Cuándo NO necesitas una nueva versión:</strong>\n• Añadir un nuevo campo opcional a la respuesta (compatible hacia atrás)\n• Añadir un nuevo endpoint\n\n<strong>Enfoque práctico REWE:</strong> Versionado por URL (v1, v2). Mantener ambas versiones funcionando durante la migración. Compartir la lógica de negocio; cada versión es un adaptador delgado. Nunca dupliques código de negocio entre versiones."
      },
      {
        "heading": "Idempotencia para reintentos seguros",
        "content": "Cuando un cliente no recibe respuesta (timeout, error de red), puede reintentar. Sin idempotencia, reintento = duplicado.\n\n<pre><code>// Problema: POST no es idempotente\nPOST /deliveries (timeout... ¿se creó o no?)\nPOST /deliveries (reintento... ¡ahora tienes 2 entregas!)\n\n// Solución: Clave de Idempotencia (Idempotency Key)\nPOST /deliveries\nHeaders: Idempotency-Key: 550e8400-e29b-41d4-a716-446655440000\n\n// El servidor guarda: clave → respuesta\n// La misma clave de nuevo → devuelve la respuesta guardada (sin duplicar)</code></pre>\n\n<strong>Implementación:</strong>\n1. El cliente envía una clave única por operación lógica\n2. El servidor comprueba: \"¿ya procesé esta clave?\"\n3. Si sí → devuelve la respuesta original\n4. Si no → procesa, guarda el resultado y devuelve la respuesta\n\n<strong>Idempotencia natural:</strong>\n• PUT es naturalmente idempotente (mismos datos → mismo estado)\n• DELETE es naturalmente idempotente (borrar lo que no existe = 404 o 204)\n• Solo POST necesita claves de idempotencia explícitas para operaciones críticas"
      }
    ],
    "topic": "rest",
    "subtopic": "rest-design"
  },
  {
    "id": "theory-rest-interview",
    "title": "Entrevista sobre REST — Preguntas Comunes",
    "sections": [
      {
        "heading": "Preguntas y respuestas frecuentes",
        "content": "<strong>\"¿PUT vs POST?\"</strong>\nPOST crea un nuevo recurso (el servidor asigna el ID). PUT reemplaza un recurso en una URL conocida.\nPOST /deliveries → 201 + cabecera Location.\nPUT /deliveries/4567 → 200 (reemplazado) o 201 (creado en esa URL).\n\n<strong>\"¿Cómo manejas el versionado?\"</strong>\nVersionado por ruta URL (/v1/, /v2/) para mayor claridad. Ambas versiones delegan en la misma lógica de negocio. Los adaptadores de versión se encargan de la transformación de petición/respuesta. Nunca duplico código de negocio.\n\n<strong>\"¿Cómo aseguras una API REST?\"</strong>\n• Autenticación: Tokens JWT/OAuth2 en la cabecera Authorization\n• Autorización: comprobación de roles/permisos en la capa de negocio\n• Validación de entrada: Bean Validation + tamaños máximos + consultas parametrizadas\n• Limitación de tasa (Rate limiting): cuotas por cliente (API gateway)\n• HTTPS: siempre (nunca HTTP plano en producción)\n\n<strong>\"¿REST vs GraphQL?\"</strong>\nREST: más simple, cacheable, muy extendido. Mejor para CRUD y APIs estándar.\nGraphQL: consultas flexibles, reduce el exceso o falta de datos (over/under-fetching). Mejor para UIs complejas con necesidades de datos variadas.\nPara la logística de transporte de REWE: REST es la elección estándar (recursos definidos, patrones predecibles).\n\n<strong>\"¿Qué hace que una API sea 'RESTful'?\"</strong>\nQue sea sin estado (stateless), orientada a recursos, use verbos HTTP adecuados, códigos de estado correctos y HATEOAS (enlaces en las respuestas, aunque a menudo se omite en la práctica). Respuesta pragmática: \"Seguimos las convenciones REST para verbos y códigos de estado, URLs orientadas a recursos y comunicación sin estado. No implementamos HATEOAS completo porque el ROI es bajo para APIs internas\"."
      },
      {
        "heading": "Perspectiva Senior",
        "content": "Los ingenieros senior diseñan APIs para la evolución, no solo para los requisitos de hoy.\n\nDistinciones clave:\n• La estrategia de versionado de la API debe decidirse ANTES de que exista el primer consumidor\n• La idempotencia no es opcional para cualquier operación que pueda ser reintentada\n• La paginación debe usar un ordenamiento estable; offset/limit falla con inserciones concurrentes\n• Las respuestas de error deben ayudar al cliente a recuperarse, no solo informar del fallo\n• El rate limiting, circuit breaking y presupuestos de timeout son preocupaciones de diseño de la API, no algo secundario"
      },
      {
        "heading": "Perspectiva REWE",
        "content": "En el ecosistema de APIs de TRAB:\n\n• La API de seguimiento de entregas sirve a apps móviles, dashboards de almacén y transportistas externos, todos con necesidades diferentes\n• El versionado (v1, v2) permite evolucionar la API sin romper a los consumidores existentes durante despliegues progresivos\n• Los callbacks de Webhook notifican a los transportistas externos sobre cambios en el estado de entrega, requiriendo receptores idempotentes\n• Los endpoints masivos (POST /deliveries/batch) manejan las importaciones de planificación de rutas matutinas (más de 500 entregas a la vez)\n• El API Gateway gestiona la autenticación, el rate limiting y el enrutamiento a la versión correcta del servicio"
      },
      {
        "heading": "Cuándo NO usarlo",
        "content": "Cuándo REST no es la mejor opción:\n\n• Comunicación bidireccional en tiempo real (usar WebSocket o SSE)\n• Comunicación interna entre servicios de alta frecuencia donde el overhead de HTTP importa (usar gRPC)\n• Notificación de eventos entre servicios (usar mensajería: Kafka, RabbitMQ)\n• Carga de archivos >100MB (usar protocolos de streaming o carga por partes)\n• Cuando necesitas tipado fuerte entre límites de servicio (considerar gRPC + protobuf)"
      }
    ],
    "topic": "rest",
    "subtopic": "rest-versioning"
  }
]